module sensor-listener

go 1.13

require (
	github.com/BurntSushi/toml v0.3.1 // indirect
	github.com/gorilla/mux v1.7.3
	gopkg.in/natefinch/lumberjack.v2 v2.0.0
	gopkg.in/yaml.v2 v2.2.7 // indirect
)
